testbench/cpu_ultra_comprehensive.vcd
$date
	Sat Aug  2 11:33:53 2025
$end
$version
	Icarus Verilog
$end
$timescale
	1ps
$end
$scope module CPU_Ultra_Comprehensive_tb $end
$var wire 4 ! pipeline_state [3:0] $end
$var wire 32 " pc_current [31:0] $end
$var wire 32 # instruction_debug [31:0] $end
$var reg 1 $ clk $end
$var reg 1 % reset $end
$var reg 32 & test_count [31:0] $end
$var reg 256 ' test_name [255:0] $end
$var integer 32 ( cycle_count [31:0] $end
$var integer 32 ) failed_tests [31:0] $end
$var integer 32 * passed_tests [31:0] $end
$var integer 32 + total_tests [31:0] $end
$scope module dut $end
$var wire 1 $ clk $end
$var wire 32 , debug_reg1 [31:0] $end
$var wire 32 - debug_reg2 [31:0] $end
$var wire 32 . debug_reg3 [31:0] $end
$var wire 1 / flush_ex $end
$var wire 1 0 flush_id $end
$var wire 1 1 flush_mem $end
$var wire 32 2 instruction_debug [31:0] $end
$var wire 32 3 pc_current [31:0] $end
$var wire 1 % reset $end
$var wire 1 4 stall_ex $end
$var wire 1 5 stall_id $end
$var wire 1 6 stall_if $end
$var wire 1 7 stall_mem $end
$var wire 32 8 write_back_data [31:0] $end
$var wire 1 9 wb_reg_write $end
$var wire 2 : wb_reg_src [1:0] $end
$var wire 1 ; wb_mem_to_reg $end
$var wire 32 < rs2_data [31:0] $end
$var wire 32 = rs1_data [31:0] $end
$var wire 4 > pipeline_state [3:0] $end
$var wire 32 ? pc_next [31:0] $end
$var wire 32 @ memory_read_data [31:0] $end
$var wire 32 A instruction_fetch [31:0] $end
$var wire 32 B immediate [31:0] $end
$var wire 1 C id_reg_write $end
$var wire 2 D id_pc_src [1:0] $end
$var wire 1 E id_mem_write $end
$var wire 1 F id_mem_to_reg $end
$var wire 1 G id_mem_read $end
$var wire 1 H id_jump $end
$var wire 1 I id_branch $end
$var wire 2 J id_alu_src [1:0] $end
$var wire 2 K id_alu_op [1:0] $end
$var wire 32 L forwarded_rs2_data [31:0] $end
$var wire 32 M forwarded_rs1_data [31:0] $end
$var wire 2 N forward_b [1:0] $end
$var wire 2 O forward_a [1:0] $end
$var wire 1 P ex_reg_write $end
$var wire 2 Q ex_pc_src [1:0] $end
$var wire 1 R ex_mem_write $end
$var wire 1 S ex_mem_to_reg $end
$var wire 1 T ex_mem_read $end
$var wire 1 U ex_jump $end
$var wire 1 V ex_branch $end
$var wire 12 W control_signals [11:0] $end
$var wire 32 X branch_target [31:0] $end
$var wire 1 Y branch_taken $end
$var wire 1 Z alu_zero $end
$var wire 32 [ alu_result [31:0] $end
$var wire 32 \ alu_operand_b [31:0] $end
$var wire 32 ] alu_operand_a [31:0] $end
$var wire 4 ^ alu_control [3:0] $end
$var reg 32 _ ex_mem_alu_result [31:0] $end
$var reg 1 ` ex_mem_branch_taken $end
$var reg 32 a ex_mem_branch_target [31:0] $end
$var reg 8 b ex_mem_control [7:0] $end
$var reg 5 c ex_mem_rd_addr [4:0] $end
$var reg 1 d ex_mem_valid $end
$var reg 32 e ex_mem_write_data [31:0] $end
$var reg 12 f id_ex_control [11:0] $end
$var reg 3 g id_ex_funct3 [2:0] $end
$var reg 7 h id_ex_funct7 [6:0] $end
$var reg 32 i id_ex_immediate [31:0] $end
$var reg 32 j id_ex_pc [31:0] $end
$var reg 5 k id_ex_rd_addr [4:0] $end
$var reg 5 l id_ex_rs1_addr [4:0] $end
$var reg 32 m id_ex_rs1_data [31:0] $end
$var reg 5 n id_ex_rs2_addr [4:0] $end
$var reg 32 o id_ex_rs2_data [31:0] $end
$var reg 1 p id_ex_valid $end
$var reg 32 q if_id_instruction [31:0] $end
$var reg 32 r if_id_pc [31:0] $end
$var reg 32 s if_id_pc_plus_4 [31:0] $end
$var reg 1 t if_id_valid $end
$var reg 32 u mem_wb_alu_result [31:0] $end
$var reg 4 v mem_wb_control [3:0] $end
$var reg 5 w mem_wb_rd_addr [4:0] $end
$var reg 32 x mem_wb_read_data [31:0] $end
$var reg 1 y mem_wb_valid $end
$var reg 32 z pc_reg [31:0] $end
$scope module alu $end
$var wire 32 { operand_a [31:0] $end
$var wire 32 | operand_b [31:0] $end
$var wire 1 Z zero $end
$var wire 4 } alu_control [3:0] $end
$var parameter 4 ~ ALU_ADD $end
$var parameter 4 !" ALU_AND $end
$var parameter 4 "" ALU_OR $end
$var parameter 4 #" ALU_SLL $end
$var parameter 4 $" ALU_SLT $end
$var parameter 4 %" ALU_SLTU $end
$var parameter 4 &" ALU_SRA $end
$var parameter 4 '" ALU_SRL $end
$var parameter 4 (" ALU_SUB $end
$var parameter 4 )" ALU_XOR $end
$var reg 32 *" result [31:0] $end
$upscope $end
$scope module alu_ctrl $end
$var wire 2 +" alu_op [1:0] $end
$var wire 3 ," funct3 [2:0] $end
$var wire 1 -" funct7_bit30 $end
$var reg 4 ." alu_control [3:0] $end
$upscope $end
$scope module branch_unit $end
$var wire 1 I branch_enable $end
$var wire 3 /" funct3 [2:0] $end
$var wire 32 0" rs1_data [31:0] $end
$var wire 32 1" rs2_data [31:0] $end
$var reg 1 Y branch_taken $end
$upscope $end
$scope module control_unit $end
$var wire 7 2" opcode [6:0] $end
$var parameter 7 3" OP_AUIPC $end
$var parameter 7 4" OP_BRANCH $end
$var parameter 7 5" OP_IMM $end
$var parameter 7 6" OP_JAL $end
$var parameter 7 7" OP_JALR $end
$var parameter 7 8" OP_LOAD $end
$var parameter 7 9" OP_LUI $end
$var parameter 7 :" OP_REG $end
$var parameter 7 ;" OP_STORE $end
$var reg 12 <" control_signals [11:0] $end
$upscope $end
$scope module dmem $end
$var wire 32 =" address [31:0] $end
$var wire 1 $ clk $end
$var wire 1 T mem_read $end
$var wire 1 R mem_write $end
$var wire 32 >" write_data [31:0] $end
$var wire 32 ?" read_data [31:0] $end
$upscope $end
$scope module forwarding_unit $end
$var wire 5 @" rd_mem [4:0] $end
$var wire 5 A" rd_wb [4:0] $end
$var wire 1 P reg_write_mem $end
$var wire 1 9 reg_write_wb $end
$var wire 5 B" rs1_ex [4:0] $end
$var wire 5 C" rs2_ex [4:0] $end
$var wire 2 D" forward_b [1:0] $end
$var wire 2 E" forward_a [1:0] $end
$upscope $end
$scope module imem $end
$var wire 32 F" address [31:0] $end
$var wire 32 G" instruction [31:0] $end
$upscope $end
$scope module imm_gen $end
$var wire 32 H" instruction [31:0] $end
$var wire 7 I" opcode [6:0] $end
$var reg 32 J" immediate [31:0] $end
$upscope $end
$scope module register_file $end
$var wire 1 $ clk $end
$var wire 5 K" rd_addr [4:0] $end
$var wire 1 % reset $end
$var wire 5 L" rs1_addr [4:0] $end
$var wire 5 M" rs2_addr [4:0] $end
$var wire 32 N" write_data [31:0] $end
$var wire 1 O" write_enable $end
$var wire 32 P" rs2_data [31:0] $end
$var wire 32 Q" rs1_data [31:0] $end
$upscope $end
$upscope $end
$scope task display_final_summary $end
$upscope $end
$scope task run_generic_test $end
$var reg 32 R" test_num [31:0] $end
$upscope $end
$scope task run_test $end
$var reg 256 S" test_description [255:0] $end
$var reg 32 T" test_num [31:0] $end
$upscope $end
$scope task setup_test_memory $end
$var reg 1024 U" instructions [1023:0] $end
$var integer 32 V" i [31:0] $end
$upscope $end
$scope task test_add_negative_negative $end
$upscope $end
$scope task test_add_overflow $end
$upscope $end
$scope task test_add_positive_negative $end
$upscope $end
$scope task test_add_positive_positive $end
$upscope $end
$scope task test_add_underflow $end
$upscope $end
$scope task test_add_zero $end
$upscope $end
$scope task test_addi_max_negative $end
$upscope $end
$scope task test_addi_max_positive $end
$upscope $end
$scope task test_addi_zero_negative $end
$upscope $end
$scope task test_addi_zero_positive $end
$upscope $end
$scope task test_and_all_ones $end
$upscope $end
$scope task test_and_all_zeros $end
$upscope $end
$scope task test_and_basic $end
$upscope $end
$scope task test_andi_immediate $end
$upscope $end
$scope task test_or_all_ones $end
$upscope $end
$scope task test_or_all_zeros $end
$upscope $end
$scope task test_or_basic $end
$upscope $end
$scope task test_ori_immediate $end
$upscope $end
$scope task test_shift_large_amount $end
$upscope $end
$scope task test_shift_zero_amount $end
$upscope $end
$scope task test_sll_basic $end
$upscope $end
$scope task test_sll_max $end
$upscope $end
$scope task test_slli_immediate $end
$upscope $end
$scope task test_slt_equal_signed $end
$upscope $end
$scope task test_slt_false_signed $end
$upscope $end
$scope task test_slt_negative_positive $end
$upscope $end
$scope task test_slt_true_signed $end
$upscope $end
$scope task test_slt_vs_sltu $end
$upscope $end
$scope task test_slti_immediate $end
$upscope $end
$scope task test_sltiu_immediate $end
$upscope $end
$scope task test_sltu_false_unsigned $end
$upscope $end
$scope task test_sltu_large_unsigned $end
$upscope $end
$scope task test_sltu_true_unsigned $end
$upscope $end
$scope task test_sra_basic $end
$upscope $end
$scope task test_sra_sign_extension $end
$upscope $end
$scope task test_srai_immediate $end
$upscope $end
$scope task test_srl_basic $end
$upscope $end
$scope task test_srli_immediate $end
$upscope $end
$scope task test_sub_max_min $end
$upscope $end
$scope task test_sub_min_max $end
$upscope $end
$scope task test_sub_negative_negative $end
$upscope $end
$scope task test_sub_negative_positive $end
$upscope $end
$scope task test_sub_overflow $end
$upscope $end
$scope task test_sub_positive_negative $end
$upscope $end
$scope task test_sub_positive_positive $end
$upscope $end
$scope task test_sub_self $end
$upscope $end
$scope task test_sub_underflow $end
$upscope $end
$scope task test_sub_zero $end
$upscope $end
$scope task test_xor_basic $end
$upscope $end
$scope task test_xori_immediate $end
$upscope $end
$scope task verify_test_result $end
$var reg 32 W" test_num [31:0] $end
$var reg 1 X" test_passed $end
$var integer 32 Y" i [31:0] $end
$var integer 32 Z" reg_errors [31:0] $end
$upscope $end
$upscope $end
$enddefinitions $end
$comment Show the parameter values. $end
$dumpall
b100011 ;"
b110011 :"
b110111 9"
b11 8"
b1100111 7"
b1101111 6"
b10011 5"
b1100011 4"
b10111 3"
b1 )"
b110 ("
b11 '"
b101 &"
b1000 %"
b111 $"
b100 #"
b0 ""
b1001 !"
b10 ~
$end
#0
$dumpvars
bx Z"
bx Y"
xX"
bx W"
bx V"
bx U"
bx T"
bx S"
bx R"
b0 Q"
b0 P"
0O"
b0 N"
b0 M"
b0 L"
b0 K"
b0 J"
b10011 I"
b10011 H"
bx G"
b0 F"
b0 E"
b0 D"
b0 C"
b0 B"
b0 A"
b0 @"
b0 ?"
b0 >"
b0 ="
b100000011001 <"
b10011 2"
b0 1"
b0 0"
b0 /"
b10 ."
0-"
b0 ,"
b0 +"
b0 *"
b10 }
b0 |
b0 {
b0 z
0y
b0 x
b0 w
b0 v
b0 u
0t
b0 s
b0 r
b10011 q
0p
b0 o
b0 n
b0 m
b0 l
b0 k
b0 j
b0 i
b0 h
b0 g
b0 f
b0 e
0d
b0 c
b0 b
b0 a
0`
b0 _
b10 ^
b0 ]
b0 \
b0 [
1Z
0Y
b0 X
b100000011001 W
0V
0U
0T
0S
0R
b0 Q
0P
b0 O
b0 N
b0 M
b0 L
b0 K
b0 J
0I
0H
0G
0F
0E
b0 D
0C
b0 B
bx A
b0 @
b100 ?
b0 >
b0 =
b0 <
0;
b0 :
09
b0 8
07
06
05
04
b0 3
b10011 2
01
00
0/
bx .
bx -
bx ,
b11111111 +
b0 *
b0 )
b0 (
bx '
b0 &
1%
0$
b10011 #
b0 "
b0 !
$end
#5000
b0 .
b0 -
b0 ,
1$
#10000
0$
0%
#15000
b1000 ?
b100 F"
b1000 !
b1000 >
b1010 M"
b1010 B
b1010 J"
1C
b1 J
b10 K
b10 +"
b1 D
b100 "
b100 3
b100 z
1t
b100 s
b101000000000000010010011 #
b101000000000000010010011 2
b101000000000000010010011 q
b101000000000000010010011 H"
b100000011001 f
b1 (
1$
b10011 A
b10011 G"
b100000 V"
b101000000000000010010011 U"
b10000010100010001000100010010010011101000100000010110100110010101110010011011110010000000101011001000000101000001101111011100110110100101110100011010010111011001100101 '
b1 &
b10000010100010001000100010010010011101000100000010110100110010101110010011011110010000000101011001000000101000001101111011100110110100101110100011010010111011001100101 S"
b1 T"
#20000
0$
#25000
b101000000000000010010011 A
b101000000000000010010011 G"
b100 ?
b0 F"
0C
b0 J
b0 K
b0 +"
b0 D
b0 !
b0 >
b0 M"
b0 B
b0 J"
0t
b0 f
b0 b
0p
b0 k
b0 n
b0 C"
b0 X
b0 i
b0 s
b0 r
b10011 #
b10011 2
b10011 q
b10011 H"
b0 "
b0 3
b0 z
1%
b10 (
1$
#30000
0$
#35000
1$
#40000
0$
#45000
1$
#50000
0$
#55000
1$
#60000
0$
#65000
1$
#70000
0$
#75000
b11 (
0%
1$
#80000
0$
#85000
b10011 A
b10011 G"
b1000 ?
b100 F"
b1000 !
b1000 >
b1010 M"
b1010 B
b1010 J"
1C
b1 J
b10 K
b10 +"
b1 D
b100 "
b100 3
b100 z
1t
b100 s
b101000000000000010010011 #
b101000000000000010010011 2
b101000000000000010010011 q
b101000000000000010010011 H"
b100000011001 f
b100 (
1$
#90000
0$
#95000
0Z
b1010 [
b1010 *"
b1100 ?
b1000 F"
1P
b1 Q
b1100 !
b1100 >
b1010 \
b1010 |
b0 M"
b0 B
b0 J"
b10000001 b
1p
b1 k
b1010 n
b1010 C"
b1010 X
b1010 i
b1000 s
b100 r
b10011 #
b10011 2
b10011 q
b10011 H"
b1000 "
b1000 3
b1000 z
b101 (
1$
#100000
0$
#105000
b10000 ?
b1100 F"
1Z
b0 [
b0 *"
b1000 ="
b0 \
b0 |
b1110 !
b1110 >
19
b1 :
b1100 "
b1100 3
b1100 z
b1100 s
b1000 r
b0 k
b0 n
b0 C"
b0 i
b100 X
b100 j
1d
b1 c
b1 @"
b1010 a
b1010 _
b1001 v
b110 (
1$
#110000
0$
#115000
b0 O
b0 E"
b0 N
b0 D"
b0 ="
b10100 ?
b10000 F"
b1111 !
b1111 >
1O"
b1010 8
b1010 N"
1y
b1 w
b1 A"
b1 K"
b1010 u
b0 c
b0 @"
b100 a
b0 _
b1000 X
b1000 j
b10000 s
b1100 r
b10000 "
b10000 3
b10000 z
b111 (
1$
#120000
0$
#125000
b0 O
b0 E"
b0 N
b0 D"
b11000 ?
b10100 F"
b0 8
b0 N"
b1010 ,
b10100 "
b10100 3
b10100 z
b10100 s
b10000 r
b1100 X
b1100 j
b1000 a
b0 w
b0 A"
b0 K"
b0 u
b1000 (
1$
#130000
0$
#135000
b11100 ?
b11000 F"
b1100 a
b10000 X
b10000 j
b11000 s
b10100 r
b11000 "
b11000 3
b11000 z
b1001 (
1$
#140000
0$
#145000
b100000 ?
b11100 F"
b11100 "
b11100 3
b11100 z
b11100 s
b11000 r
b10100 X
b10100 j
b10000 a
b1010 (
1$
#150000
0$
#155000
b100100 ?
b100000 F"
b10100 a
b11000 X
b11000 j
b100000 s
b11100 r
b100000 "
b100000 3
b100000 z
b1011 (
1$
#160000
0$
#165000
b101000 ?
b100100 F"
b100100 "
b100100 3
b100100 z
b100100 s
b100000 r
b11100 X
b11100 j
b11000 a
b1100 (
1$
#170000
0$
#175000
b101100 ?
b101000 F"
b11100 a
b100000 X
b100000 j
b101000 s
b100100 r
b101000 "
b101000 3
b101000 z
b1101 (
1$
#180000
0$
#185000
b110000 ?
b101100 F"
b101100 "
b101100 3
b101100 z
b101100 s
b101000 r
b100100 X
b100100 j
b100000 a
b1110 (
1$
#190000
0$
#195000
b110100 ?
b110000 F"
b100100 a
b101000 X
b101000 j
b110000 s
b101100 r
b110000 "
b110000 3
b110000 z
b1111 (
1$
#200000
0$
#205000
b111000 ?
b110100 F"
b110100 "
b110100 3
b110100 z
b110100 s
b110000 r
b101100 X
b101100 j
b101000 a
b10000 (
1$
#210000
0$
#215000
b111100 ?
b111000 F"
b101100 a
b110000 X
b110000 j
b111000 s
b110100 r
b111000 "
b111000 3
b111000 z
b10001 (
1$
#220000
0$
#225000
b1000000 ?
b111100 F"
b111100 "
b111100 3
b111100 z
b111100 s
b111000 r
b110100 X
b110100 j
b110000 a
b10010 (
1$
#230000
0$
#235000
b1000100 ?
b1000000 F"
b110100 a
b111000 X
b111000 j
b1000000 s
b111100 r
b1000000 "
b1000000 3
b1000000 z
b10011 (
1$
#240000
0$
#245000
b1001000 ?
b1000100 F"
b1000100 "
b1000100 3
b1000100 z
b1000100 s
b1000000 r
b111100 X
b111100 j
b111000 a
b10100 (
1$
#250000
0$
#255000
b1001100 ?
b1001000 F"
b111100 a
b1000000 X
b1000000 j
b1001000 s
b1000100 r
b1001000 "
b1001000 3
b1001000 z
b0 Z"
1X"
b10101 (
b1 W"
1$
#260000
0$
#265000
b1010000 ?
b1001100 F"
b1001100 "
b1001100 3
b1001100 z
b1001100 s
b1001000 r
b1000100 X
b1000100 j
b1000000 a
b10110 (
1$
#270000
0$
#275000
b1010100 ?
b1010000 F"
b1000100 a
b1001000 X
b1001000 j
b1010000 s
b1001100 r
b1010000 "
b1010000 3
b1010000 z
b10111 (
1$
#280000
0$
#285000
b1011000 ?
b1010100 F"
b1010100 "
b1010100 3
b1010100 z
b1010100 s
b1010000 r
b1001100 X
b1001100 j
b1001000 a
b11000 (
1$
#290000
0$
#295000
b1011100 ?
b1011000 F"
b1001100 a
b1010000 X
b1010000 j
b1011000 s
b1010100 r
b1011000 "
b1011000 3
b1011000 z
b11001 (
1$
#300000
0$
#305000
b1100000 ?
b1011100 F"
b1011100 "
b1011100 3
b1011100 z
b1011100 s
b1011000 r
b1010100 X
b1010100 j
b1010000 a
b100000 V"
b11111111011000000000000010010011 U"
b10000010100010001000100010010010011101000100000010110100110010101110010011011110010000000101011001000000100111001100101011001110110000101110100011010010111011001100101 '
b10 &
b10000010100010001000100010010010011101000100000010110100110010101110010011011110010000000101011001000000100111001100101011001110110000101110100011010010111011001100101 S"
b10 T"
b11010 (
b1 *
b100000 Y"
1$
#310000
0$
#315000
b1100100 ?
b1100000 F"
b1010100 a
b1011000 X
b1011000 j
b1100000 s
b1011100 r
b1100000 "
b1100000 3
b1100000 z
b11011 (
1$
#320000
0$
#325000
b11111111011000000000000010010011 A
b11111111011000000000000010010011 G"
b100 ?
b0 F"
0O"
09
b0 :
0P
b0 Q
0C
b0 J
b0 K
b0 +"
b0 D
b0 !
b0 >
0y
b0 v
0d
b0 b
0p
b0 f
0t
b0 "
b0 3
b0 z
b0 s
b0 r
b0 X
b0 j
b0 a
1%
b11100 (
1$
#330000
0$
#335000
b0 ,
1$
#340000
0$
#345000
1$
#350000
0$
#355000
1$
#360000
0$
#365000
1$
#370000
0$
#375000
b11101 (
0%
1$
#380000
0$
#385000
b10011 A
b10011 G"
b1000 ?
b100 F"
1C
b1 J
b10 K
b10 +"
b1 D
b1000 !
b1000 >
b10110 M"
b11111111111111111111111111110110 B
b11111111111111111111111111110110 J"
b100000011001 f
1t
b100 s
b11111111011000000000000010010011 #
b11111111011000000000000010010011 2
b11111111011000000000000010010011 q
b11111111011000000000000010010011 H"
b100 "
b100 3
b100 z
b11110 (
1$
#390000
0$
#395000
b1100 ?
b1000 F"
0Z
b11111111111111111111111111110110 [
b11111111111111111111111111110110 *"
b0 M"
b0 B
b0 J"
b1100 !
b1100 >
b11111111111111111111111111110110 \
b11111111111111111111111111110110 |
1P
b1 Q
b1000 "
b1000 3
b1000 z
b1000 s
b100 r
b10011 #
b10011 2
b10011 q
b10011 H"
1p
b1 k
b10110 n
b10110 C"
b11111111111111111111111111110110 X
b11111111111111111111111111110110 i
b10000001 b
b11111 (
1$
#400000
0$
#405000
b11111111111111111111111111110100 ="
1Z
b0 [
b0 *"
b10000 ?
b1100 F"
19
b1 :
b1110 !
b1110 >
b0 \
b0 |
b1001 v
1d
b1 c
b1 @"
b11111111111111111111111111110110 a
b11111111111111111111111111110110 _
b0 k
b0 n
b0 C"
b0 i
b100 X
b100 j
b1100 s
b1000 r
b1100 "
b1100 3
b1100 z
b100000 (
1$
#410000
0$
#415000
b10100 ?
b10000 F"
b0 O
b0 E"
b0 N
b0 D"
b0 ="
b1111 !
b1111 >
1O"
b11111111111111111111111111110110 8
b11111111111111111111111111110110 N"
b10000 "
b10000 3
b10000 z
b10000 s
b1100 r
b1000 X
b1000 j
b0 c
b0 @"
b100 a
b0 _
1y
b1 w
b1 A"
b1 K"
b11111111111111111111111111110110 u
b100001 (
1$
#420000
0$
#425000
b0 O
b0 E"
b0 N
b0 D"
b11000 ?
b10100 F"
b0 8
b0 N"
b11111111111111111111111111110110 ,
b0 w
b0 A"
b0 K"
b0 u
b1000 a
b1100 X
b1100 j
b10100 s
b10000 r
b10100 "
b10100 3
b10100 z
b100010 (
1$
#430000
0$
#435000
b11100 ?
b11000 F"
b11000 "
b11000 3
b11000 z
b11000 s
b10100 r
b10000 X
b10000 j
b1100 a
b100011 (
1$
#440000
0$
#445000
b100000 ?
b11100 F"
b10000 a
b10100 X
b10100 j
b11100 s
b11000 r
b11100 "
b11100 3
b11100 z
b100100 (
1$
#450000
0$
#455000
b100100 ?
b100000 F"
b100000 "
b100000 3
b100000 z
b100000 s
b11100 r
b11000 X
b11000 j
b10100 a
b100101 (
1$
#460000
0$
#465000
b101000 ?
b100100 F"
b11000 a
b11100 X
b11100 j
b100100 s
b100000 r
b100100 "
b100100 3
b100100 z
b100110 (
1$
#470000
0$
#475000
b101100 ?
b101000 F"
b101000 "
b101000 3
b101000 z
b101000 s
b100100 r
b100000 X
b100000 j
b11100 a
b100111 (
1$
#480000
0$
#485000
b110000 ?
b101100 F"
b100000 a
b100100 X
b100100 j
b101100 s
b101000 r
b101100 "
b101100 3
b101100 z
b101000 (
1$
#490000
0$
#495000
b110100 ?
b110000 F"
b110000 "
b110000 3
b110000 z
b110000 s
b101100 r
b101000 X
b101000 j
b100100 a
b101001 (
1$
#500000
0$
#505000
b111000 ?
b110100 F"
b101000 a
b101100 X
b101100 j
b110100 s
b110000 r
b110100 "
b110100 3
b110100 z
b101010 (
1$
#510000
0$
#515000
b111100 ?
b111000 F"
b111000 "
b111000 3
b111000 z
b111000 s
b110100 r
b110000 X
b110000 j
b101100 a
b101011 (
1$
#520000
0$
#525000
b1000000 ?
b111100 F"
b110000 a
b110100 X
b110100 j
b111100 s
b111000 r
b111100 "
b111100 3
b111100 z
b101100 (
1$
#530000
0$
#535000
b1000100 ?
b1000000 F"
b1000000 "
b1000000 3
b1000000 z
b1000000 s
b111100 r
b111000 X
b111000 j
b110100 a
b101101 (
1$
#540000
0$
#545000
b1001000 ?
b1000100 F"
b111000 a
b111100 X
b111100 j
b1000100 s
b1000000 r
b1000100 "
b1000100 3
b1000100 z
b101110 (
1$
#550000
0$
#555000
b1001100 ?
b1001000 F"
b1001000 "
b1001000 3
b1001000 z
b1001000 s
b1000100 r
b1000000 X
b1000000 j
b111100 a
b101111 (
b10 W"
1$
#560000
0$
#565000
b1010000 ?
b1001100 F"
b1000000 a
b1000100 X
b1000100 j
b1001100 s
b1001000 r
b1001100 "
b1001100 3
b1001100 z
b110000 (
1$
#570000
0$
#575000
b1010100 ?
b1010000 F"
b1010000 "
b1010000 3
b1010000 z
b1010000 s
b1001100 r
b1001000 X
b1001000 j
b1000100 a
b110001 (
1$
#580000
0$
#585000
b1011000 ?
b1010100 F"
b1001000 a
b1001100 X
b1001100 j
b1010100 s
b1010000 r
b1010100 "
b1010100 3
b1010100 z
b110010 (
1$
#590000
0$
#595000
b1011100 ?
b1011000 F"
b1011000 "
b1011000 3
b1011000 z
b1011000 s
b1010100 r
b1010000 X
b1010000 j
b1001100 a
b110011 (
1$
#600000
0$
#605000
b1100000 ?
b1011100 F"
b1010000 a
b1010100 X
b1010100 j
b1011100 s
b1011000 r
b1011100 "
b1011100 3
b1011100 z
b100000 V"
b1111111111100000000000010010011 U"
b10000010100010001000100010010010011101000100000010011010110000101111000001000000101000001101111011100110110100101110100011010010111011001100101 '
b11 &
b10000010100010001000100010010010011101000100000010011010110000101111000001000000101000001101111011100110110100101110100011010010111011001100101 S"
b11 T"
b110100 (
b10 *
b100000 Y"
1$
#610000
0$
#615000
b1100100 ?
b1100000 F"
b1100000 "
b1100000 3
b1100000 z
b1100000 s
b1011100 r
b1011000 X
b1011000 j
b1010100 a
b110101 (
1$
#620000
0$
#625000
b1111111111100000000000010010011 A
b1111111111100000000000010010011 G"
b100 ?
b0 F"
0C
b0 J
b0 K
b0 +"
b0 D
0P
b0 Q
b0 !
b0 >
0O"
09
b0 :
0t
0p
b0 f
0d
b0 b
0y
b0 v
b0 a
b0 X
b0 j
b0 s
b0 r
b0 "
b0 3
b0 z
1%
b110110 (
1$
#630000
0$
#635000
b0 ,
1$
#640000
0$
#645000
1$
#650000
0$
#655000
1$
#660000
0$
#665000
1$
#670000
0$
#675000
b110111 (
0%
1$
#680000
0$
#685000
b10011 A
b10011 G"
b1000 ?
b100 F"
b1000 !
b1000 >
b11111 M"
b11111111111 B
b11111111111 J"
1C
b1 J
b10 K
b10 +"
b1 D
b100 "
b100 3
b100 z
1t
b100 s
b1111111111100000000000010010011 #
b1111111111100000000000010010011 2
b1111111111100000000000010010011 q
b1111111111100000000000010010011 H"
b100000011001 f
b111000 (
1$
#690000
0$
#695000
0Z
b11111111111 [
b11111111111 *"
b1100 ?
b1000 F"
1P
b1 Q
b1100 !
b1100 >
b11111111111 \
b11111111111 |
b0 M"
b0 B
b0 J"
b10000001 b
1p
b1 k
b11111 n
b11111 C"
b11111111111 X
b11111111111 i
b1000 s
b100 r
b10011 #
b10011 2
b10011 q
b10011 H"
b1000 "
b1000 3
b1000 z
b111001 (
1$
#700000
0$
#705000
b10000 ?
b1100 F"
1Z
b0 [
b0 *"
b11111111100 ="
b0 \
b0 |
b1110 !
b1110 >
19
b1 :
b1100 "
b1100 3
b1100 z
b1100 s
b1000 r
b0 k
b0 n
b0 C"
b0 i
b100 X
b100 j
1d
b1 c
b1 @"
b11111111111 a
b11111111111 _
b1001 v
b111010 (
1$
#710000
0$
#715000
b0 O
b0 E"
b0 N
b0 D"
b0 ="
b10100 ?
b10000 F"
b1111 !
b1111 >
1O"
b11111111111 8
b11111111111 N"
1y
b1 w
b1 A"
b1 K"
b11111111111 u
b0 c
b0 @"
b100 a
b0 _
b1000 X
b1000 j
b10000 s
b1100 r
b10000 "
b10000 3
b10000 z
b111011 (
1$
#720000
0$
#725000
b0 O
b0 E"
b0 N
b0 D"
b11000 ?
b10100 F"
b0 8
b0 N"
b11111111111 ,
b10100 "
b10100 3
b10100 z
b10100 s
b10000 r
b1100 X
b1100 j
b1000 a
b0 w
b0 A"
b0 K"
b0 u
b111100 (
1$
#730000
0$
#735000
b11100 ?
b11000 F"
b1100 a
b10000 X
b10000 j
b11000 s
b10100 r
b11000 "
b11000 3
b11000 z
b111101 (
1$
#740000
0$
#745000
b100000 ?
b11100 F"
b11100 "
b11100 3
b11100 z
b11100 s
b11000 r
b10100 X
b10100 j
b10000 a
b111110 (
1$
#750000
0$
#755000
b100100 ?
b100000 F"
b10100 a
b11000 X
b11000 j
b100000 s
b11100 r
b100000 "
b100000 3
b100000 z
b111111 (
1$
#760000
0$
#765000
b101000 ?
b100100 F"
b100100 "
b100100 3
b100100 z
b100100 s
b100000 r
b11100 X
b11100 j
b11000 a
b1000000 (
1$
#770000
0$
#775000
b101100 ?
b101000 F"
b11100 a
b100000 X
b100000 j
b101000 s
b100100 r
b101000 "
b101000 3
b101000 z
b1000001 (
1$
#780000
0$
#785000
b110000 ?
b101100 F"
b101100 "
b101100 3
b101100 z
b101100 s
b101000 r
b100100 X
b100100 j
b100000 a
b1000010 (
1$
#790000
0$
#795000
b110100 ?
b110000 F"
b100100 a
b101000 X
b101000 j
b110000 s
b101100 r
b110000 "
b110000 3
b110000 z
b1000011 (
1$
#800000
0$
#805000
b111000 ?
b110100 F"
b110100 "
b110100 3
b110100 z
b110100 s
b110000 r
b101100 X
b101100 j
b101000 a
b1000100 (
1$
#810000
0$
#815000
b111100 ?
b111000 F"
b101100 a
b110000 X
b110000 j
b111000 s
b110100 r
b111000 "
b111000 3
b111000 z
b1000101 (
1$
#820000
0$
#825000
b1000000 ?
b111100 F"
b111100 "
b111100 3
b111100 z
b111100 s
b111000 r
b110100 X
b110100 j
b110000 a
b1000110 (
1$
#830000
0$
#835000
b1000100 ?
b1000000 F"
b110100 a
b111000 X
b111000 j
b1000000 s
b111100 r
b1000000 "
b1000000 3
b1000000 z
b1000111 (
1$
#840000
0$
#845000
b1001000 ?
b1000100 F"
b1000100 "
b1000100 3
b1000100 z
b1000100 s
b1000000 r
b111100 X
b111100 j
b111000 a
b1001000 (
1$
#850000
0$
#855000
b1001100 ?
b1001000 F"
b111100 a
b1000000 X
b1000000 j
b1001000 s
b1000100 r
b1001000 "
b1001000 3
b1001000 z
b1001001 (
b11 W"
1$
#860000
0$
#865000
b1010000 ?
b1001100 F"
b1001100 "
b1001100 3
b1001100 z
b1001100 s
b1001000 r
b1000100 X
b1000100 j
b1000000 a
b1001010 (
1$
#870000
0$
#875000
b1010100 ?
b1010000 F"
b1000100 a
b1001000 X
b1001000 j
b1010000 s
b1001100 r
b1010000 "
b1010000 3
b1010000 z
b1001011 (
1$
#880000
0$
#885000
b1011000 ?
b1010100 F"
b1010100 "
b1010100 3
b1010100 z
b1010100 s
b1010000 r
b1001100 X
b1001100 j
b1001000 a
b1001100 (
1$
#890000
0$
#895000
b1011100 ?
b1011000 F"
b1001100 a
b1010000 X
b1010000 j
b1011000 s
b1010100 r
b1011000 "
b1011000 3
b1011000 z
b1001101 (
1$
#900000
0$
